// Jest Snapshot v1, https://goo.gl/fbAQLP

exports[`App 1`] = `"<form class=\\"py-16 flex items-center justify-center\\"><input class=\\"text-3xl p-4 font-sans bg-white rounded-xl w-1/2 h-16 shadow-xl\\" id=\\"input\\"/><button type=\\"submit\\" class=\\"ml-6 bg-blue-600 w-32 text-3xl capitalize leading-loose rounded-xl shadow-xl text-gray-100\\">submit</button></form><ul class=\\"grid grid-cols-4 gap-12 container mx-auto\\"></ul>"`;
